{
  "AWS_ACCOUNT_ID": "123412341234",
  "CLI_PROFILE": "default",
  "REGION": "eu-west-1",
  "BUCKET": "bucket",
  "MAX_AGE": "10",
  "CRYPTO_BYTE_SIZE": 128,
  "DDB_TABLE": "LambdAuthUsers",
  "MONET_BIL_SERVICE_KEY":"",
  "MONET_BIL_SERVICE_SECRET" : "",
  "mapsGoogleUrl" : "https://www.google.com/maps?",
  "currency":  "FCFA",
  "place_payment_url" : "https://api.monetbil.com/payment/v1/placePayment",
  "check_payment_url" : "https://api.monetbil.com/payment/v1/checkPayment",
  "withdrawal_url" : "https://api.monetbil.com/v1/payouts/withdrawal",
  "PerDayStats" : "Per_day_stats",
  "PRINTERS_NAME": "Printer",
  "COMMAND_RETRIEVAL_BLOCK" : "CommandRetrieval",
  "TIPS_NAME": "Tips",
  "EVERYPRINT_TIP_REVIEW_OK" : "TipReviewOk",
  "ORDER_NAME" : "order",
  "AVAIL_NAME": "AvaiableFile",
  "COMMANDS_NAME":"Commands",
  "S3_BUCKET": "everyprint-printer-files",
  "def_logo" : "https://s3.us-east-2.amazonaws.com/everyprint-printer-files/flat-printer-icon-800x566.jpg",
  "IDENTITY_POOL_NAME": "LambdAuth",
  "DEVELOPER_PROVIDER_NAME": "login.mycompany.myapp",
  "CUSTOMER_NAME" : "Customer",
  "EXTERNAL_NAME": "Everyprint",
  "CHATFUEL_API_KEY":"qwYLsCSz8hk4ytd6CPKP4C0oalstMnGdpDjF8YFHPHCieKNc0AfrnjVs91fGuH74",
  "EVEYPRINT_BOT_ID":"5a88343ce4b05207d08ab8bb",
  "EVERYPRINT_TIP_BLOCK":"TipsNotificationBlock",
  "EVERYPRINT_PAYDEMO_BLOCK" : "PayDemoBlock",
  "EVERYPRINT_AVAILABLE_FILE":"NewFileAvailable",
  "EVERYPRINT_COMMAND_OK":"CommandOk",
  "EMAIL_SOURCE": "everyprint@3islabs.com",
  "VERIFICATION_PAGE": "http://bucket.s3.amazonaws.com/verify.html",
  "RESET_PAGE": "http://bucket.s3.amazonaws.com/reset.html",
  "everyprint_mail":"djobiii2078@gmail.com",
  "everyprint_pass":"Ornella2078@@",
  "aws_region" : "us-east-2",
  "GOOGLE_DISTANCE_API_KEY" : "AIzaSyCWUqLBxrz1TuJPILF4PbV4qVxOe-jI15U",
  "VALIDATE_PRINTER_URL" : "https://qav5het0s2.execute-api.us-east-1.amazonaws.com/dev/printer/validate",
  "COMPUTE_COMMAND_TO_PRINTER_URL" : "",
  "EVERYPRINT_UPLOAD_NEXT_BLOCK" : "Part to print"
}
